Starting server
2023/08/16 22:03:45 Starting server open port 4000
spotifyCallbackHandler
code AQApdRa-492I5DcSItJWzTggoDSgwW1DbOJ-Bk38AWEvHmVOt_gIcrUbKNmQpvqe_MdXIPTCghF_5KPnXK4fD8k2ZmZ5XP1ZhrTPviEYvktQER8W5CEzgybZydp_UUx1VpvueBmVlAA-rTMiwa_O8oBriCXSQT75GFOAHP6J_uFLTv-IX-7peQWv2_uRd9TUHwYw_xLMoiVaBPTLpvSg
GetSpotifyUserAccessToken
&{POST https://accounts.spotify.com/api/token HTTP/1.1 1 1 map[Authorization:[Basic NWMzN2I2ZjRjOTAxNDM5MDhiMTFkOWUxNzI3ZGI1ZTc6MGE1ZjhiYzcyNWE5NGViN2FhZTI4ODAzYWRjMTA4ZDE=] Content-Type:[application/x-www-form-urlencoded]] {0xc0000ba940} 0x5fd300 316 [] false accounts.spotify.com map[] map[] <nil> map[]   <nil> <nil> <nil> 0xc0000b0000}
Req body: {0xc0000ba940}
map[Alt-Svc:[h3=":443"; ma=2592000,h3-29=":443"; ma=2592000] Content-Type:[application/json] Date:[Thu, 17 Aug 2023 04:04:01 GMT] Server:[envoy] Set-Cookie:[__Host-device_id=AQCaDAOuzx--wTLvbt44i2qeYl_vGGa35RLFOFuZn0t3gT4-HA5XQWmi3X9fcHzMWAr41tVen0u1g7rD-XNcG30Weq4TDNr15tA;Version=1;Path=/;Max-Age=2147483647;Secure;HttpOnly;SameSite=Lax sp_tr=false;Version=1;Domain=accounts.spotify.com;Path=/;Secure;SameSite=Lax] Sp-Trace-Id:[5a13311398c53486] Strict-Transport-Security:[max-age=31536000] Vary:[Accept-Encoding] Via:[HTTP/2 edgeproxy, 1.1 google] X-Content-Type-Options:[nosniff] X-Envoy-Upstream-Service-Time:[26]]
GetSpotifyUserAccessToken response: {"access_token":"BQDU6TEPqxrhWx0ZNfTLEUKgk5uTXTphHsgt82KmN4h2auhq4obfzDNxX9RiI3JUw2PWFrtuXhRrU4RtK3qNSV7F5mP5EtZU4MuXh3uNAQRwueZ8fSzimiCZ8iOsL3U3iQ5jgD-tZtCwy4F7kOuhn74CxhSCqxk3mXg8hojj6ZKmDtNJvFK5b8XzqA","token_type":"Bearer","expires_in":3600,"refresh_token":"AQAN_kpf1osvBaasHvEuF5IcqKjS6RPVp4N-EvNmLCP3NPRAxmbXXrX_JU9XT4rtKyPMr5T4zDNKJxt7JeKj6-5HLgeTHdUYo2fpKrMeA36vbyZAp03gwOSWa8gj3iI41-U","scope":"user-follow-read"}
JSON response {BQDU6TEPqxrhWx0ZNfTLEUKgk5uTXTphHsgt82KmN4h2auhq4obfzDNxX9RiI3JUw2PWFrtuXhRrU4RtK3qNSV7F5mP5EtZU4MuXh3uNAQRwueZ8fSzimiCZ8iOsL3U3iQ5jgD-tZtCwy4F7kOuhn74CxhSCqxk3mXg8hojj6ZKmDtNJvFK5b8XzqA Bearer AQAN_kpf1osvBaasHvEuF5IcqKjS6RPVp4N-EvNmLCP3NPRAxmbXXrX_JU9XT4rtKyPMr5T4zDNKJxt7JeKj6-5HLgeTHdUYo2fpKrMeA36vbyZAp03gwOSWa8gj3iI41-U}
GetSpotifyUserData:  BQDU6TEPqxrhWx0ZNfTLEUKgk5uTXTphHsgt82KmN4h2auhq4obfzDNxX9RiI3JUw2PWFrtuXhRrU4RtK3qNSV7F5mP5EtZU4MuXh3uNAQRwueZ8fSzimiCZ8iOsL3U3iQ5jgD-tZtCwy4F7kOuhn74CxhSCqxk3mXg8hojj6ZKmDtNJvFK5b8XzqA
map[Authorization:[Bearer BQDU6TEPqxrhWx0ZNfTLEUKgk5uTXTphHsgt82KmN4h2auhq4obfzDNxX9RiI3JUw2PWFrtuXhRrU4RtK3qNSV7F5mP5EtZU4MuXh3uNAQRwueZ8fSzimiCZ8iOsL3U3iQ5jgD-tZtCwy4F7kOuhn74CxhSCqxk3mXg8hojj6ZKmDtNJvFK5b8XzqA]]
map[Access-Control-Allow-Credentials:[true] Access-Control-Allow-Headers:[Accept, App-Platform, Authorization, Content-Type, Origin, Retry-After, Spotify-App-Version, X-Cloud-Trace-Context, client-token, content-access-token] Access-Control-Allow-Methods:[GET, POST, OPTIONS, PUT, DELETE, PATCH] Access-Control-Allow-Origin:[*] Access-Control-Max-Age:[604800] Alt-Svc:[h3=":443"; ma=2592000,h3-29=":443"; ma=2592000] Cache-Control:[private, max-age=0] Content-Type:[application/json; charset=utf-8] Date:[Thu, 17 Aug 2023 04:04:01 GMT] Server:[envoy] Strict-Transport-Security:[max-age=31536000] Vary:[Authorization] Via:[HTTP/2 edgeproxy, 1.1 google] X-Content-Type-Options:[nosniff] X-Robots-Tag:[noindex, nofollow]]
{
  "display_name" : "Jon Vincent",
  "external_urls" : {
    "spotify" : "https://open.spotify.com/user/1223044475"
  },
  "href" : "https://api.spotify.com/v1/users/1223044475",
  "id" : "1223044475",
  "images" : [ {
    "url" : "https://scontent-ord5-1.xx.fbcdn.net/v/t1.18169-1/14721441_10211106078753567_5719635354173064701_n.jpg?stp=cp0_dst-jpg_p50x50&_nc_cat=106&ccb=1-7&_nc_sid=dbb9e7&_nc_ohc=IxUCORqbfRIAX8kRAyL&_nc_oc=AQmbG1XGiIWM2v3VJ9zeFodJMS_bQwB4nfRu1YXZ4Cpwm-WNJGSSQsiridOMDUhEB6E&_nc_ht=scontent-ord5-1.xx&edm=AP4hL3IEAAAA&oh=00_AfAMRwE-vU8PrEwbQ9roFwdqQbBZz2Yn6-LDaH_Z8g3GIQ&oe=650474C5",
    "height" : 64,
    "width" : 64
  }, {
    "url" : "https://scontent-ord5-1.xx.fbcdn.net/v/t1.18169-1/14721441_10211106078753567_5719635354173064701_n.jpg?stp=dst-jpg_p320x320&_nc_cat=106&ccb=1-7&_nc_sid=0c64ff&_nc_ohc=IxUCORqbfRIAX8kRAyL&_nc_oc=AQmbG1XGiIWM2v3VJ9zeFodJMS_bQwB4nfRu1YXZ4Cpwm-WNJGSSQsiridOMDUhEB6E&_nc_ht=scontent-ord5-1.xx&edm=AP4hL3IEAAAA&oh=00_AfArC8WWYz9PO-XO5NTrDhnqC9CFYpEyLTH3MyGpu5yGOw&oe=650474C5",
    "height" : 300,
    "width" : 300
  } ],
  "type" : "user",
  "uri" : "spotify:user:1223044475",
  "followers" : {
    "href" : null,
    "total" : 10
  }
}
**************************************************************************
GetSpotifyUserFollowedArtists:  BQDU6TEPqxrhWx0ZNfTLEUKgk5uTXTphHsgt82KmN4h2auhq4obfzDNxX9RiI3JUw2PWFrtuXhRrU4RtK3qNSV7F5mP5EtZU4MuXh3uNAQRwueZ8fSzimiCZ8iOsL3U3iQ5jgD-tZtCwy4F7kOuhn74CxhSCqxk3mXg8hojj6ZKmDtNJvFK5b8XzqA
map[Authorization:[Bearer BQDU6TEPqxrhWx0ZNfTLEUKgk5uTXTphHsgt82KmN4h2auhq4obfzDNxX9RiI3JUw2PWFrtuXhRrU4RtK3qNSV7F5mP5EtZU4MuXh3uNAQRwueZ8fSzimiCZ8iOsL3U3iQ5jgD-tZtCwy4F7kOuhn74CxhSCqxk3mXg8hojj6ZKmDtNJvFK5b8XzqA]]
map[Access-Control-Allow-Credentials:[true] Access-Control-Allow-Headers:[Accept, App-Platform, Authorization, Content-Type, Origin, Retry-After, Spotify-App-Version, X-Cloud-Trace-Context, client-token, content-access-token] Access-Control-Allow-Methods:[GET, POST, OPTIONS, PUT, DELETE, PATCH] Access-Control-Allow-Origin:[*] Access-Control-Max-Age:[604800] Alt-Svc:[h3=":443"; ma=2592000,h3-29=":443"; ma=2592000] Cache-Control:[private, max-age=0] Content-Type:[application/json; charset=utf-8] Date:[Thu, 17 Aug 2023 04:04:01 GMT] Etag:["MC-IjI5MzI4YzU1ZGYzNzI5NWI4NzliOGY5NGUzNTU0YzUzIg=="] Server:[envoy] Strict-Transport-Security:[max-age=31536000] Vary:[Authorization] Via:[HTTP/2 edgeproxy, 1.1 google] X-Content-Type-Options:[nosniff] X-Robots-Tag:[noindex, nofollow]]
{
  "artists" : {
    "items" : [ {
      "external_urls" : {
        "spotify" : "https://open.spotify.com/artist/03r4iKL2g2442PT9n2UKsx"
      },
      "followers" : {
        "href" : null,
        "total" : 2593764
      },
      "genres" : [ "alternative rock", "east coast hip hop", "golden age hip hop", "hip hop", "old school hip hop", "rap", "rap rock", "rock" ],
      "href" : "https://api.spotify.com/v1/artists/03r4iKL2g2442PT9n2UKsx",
      "id" : "03r4iKL2g2442PT9n2UKsx",
      "images" : [ {
        "height" : 771,
        "url" : "https://i.scdn.co/image/705bcd56dc5dbf9ebc578a3ba8094e6d622862c2",
        "width" : 1000
      }, {
        "height" : 494,
        "url" : "https://i.scdn.co/image/060ef251f0e12353057c36fe94724b688b963dac",
        "width" : 640
      }, {
        "height" : 154,
        "url" : "https://i.scdn.co/image/eb9a69f247e84b9e9ce8b03f1ab5cca399b49cbc",
        "width" : 200
      }, {
        "height" : 49,
        "url" : "https://i.scdn.co/image/b6fafee2c4c169dadf039c2066ab77beb4c82b3e",
        "width" : 64
      } ],
      "name" : "Beastie Boys",
      "popularity" : 68,
      "type" : "artist",
      "uri" : "spotify:artist:03r4iKL2g2442PT9n2UKsx"
    }, {
      "external_urls" : {
        "spotify" : "https://open.spotify.com/artist/07YivsJVCrmhhjzBcBtMGv"
      },
      "followers" : {
        "href" : null,
        "total" : 17068
      },
      "genres" : [ ],
      "href" : "https://api.spotify.com/v1/artists/07YivsJVCrmhhjzBcBtMGv",
      "id" : "07YivsJVCrmhhjzBcBtMGv",
      "images" : [ {
        "height" : 640,
        "url" : "https://i.scdn.co/image/ab6761610000e5eb0ef04079a1924d6229fc862c",
        "width" : 640
      }, {
        "height" : 320,
        "url" : "https://i.scdn.co/image/ab676161000051740ef04079a1924d6229fc862c",
        "width" : 320
      }, {
        "height" : 160,
        "url" : "https://i.scdn.co/image/ab6761610000f1780ef04079a1924d6229fc862c",
        "width" : 160
      } ],
      "name" : "Adrian Quesada",
      "popularity" : 41,
      "type" : "artist",
      "uri" : "spotify:artist:07YivsJVCrmhhjzBcBtMGv"
    }, {
      "external_urls" : {
        "spotify" : "https://open.spotify.com/artist/0CDUUM6KNRvgBFYIbWxJwV"
      },
      "followers" : {
        "href" : null,
        "total" : 242772
      },
      "genres" : [ "indie folk", "modern folk rock", "new americana", "stomp and holler" ],
      "href" : "https://api.spotify.com/v1/artists/0CDUUM6KNRvgBFYIbWxJwV",
      "id" : "0CDUUM6KNRvgBFYIbWxJwV",
      "images" : [ {
        "height" : 640,
        "url" : "https://i.scdn.co/image/ab6761610000e5eb65a279b3ded355bd92b6d751",
        "width" : 640
      }, {
        "height" : 320,
        "url" : "https://i.scdn.co/image/ab6761610000517465a279b3ded355bd92b6d751",
        "width" : 320
      }, {
        "height" : 160,
        "url" : "https://i.scdn.co/image/ab6761610000f17865a279b3ded355bd92b6d751",
        "width" : 160
      } ],
      "name" : "Dawes",
      "popularity" : 46,
      "type" : "artist",
      "uri" : "spotify:artist:0CDUUM6KNRvgBFYIbWxJwV"
    }, {
      "external_urls" : {
        "spotify" : "https://open.spotify.com/artist/0Nrwy16xCPXG8AwkMbcVvo"
      },
      "followers" : {
        "href" : null,
        "total" : 205165
      },
      "genres" : [ "alternative roots rock", "modern blues rock" ],
      "href" : "https://api.spotify.com/v1/artists/0Nrwy16xCPXG8AwkMbcVvo",
      "id" : "0Nrwy16xCPXG8AwkMbcVvo",
      "images" : [ {
        "height" : 640,
        "url" : "https://i.scdn.co/image/ab6761610000e5eb0d0c8bb50d20de01a34d31bc",
        "width" : 640
      }, {
        "height" : 320,
        "url" : "https://i.scdn.co/image/ab676161000051740d0c8bb50d20de01a34d31bc",
        "width" : 320
      }, {
        "height" : 160,
        "url" : "https://i.scdn.co/image/ab6761610000f1780d0c8bb50d20de01a34d31bc",
        "width" : 160
      } ],
      "name" : "Black Pistol Fire",
      "popularity" : 48,
      "type" : "artist",
      "uri" : "spotify:artist:0Nrwy16xCPXG8AwkMbcVvo"
    }, {
      "external_urls" : {
        "spotify" : "https://open.spotify.com/artist/0ZPqGxW2iwZz7vGJWzuTUi"
      },
      "followers" : {
        "href" : null,
        "total" : 54479
      },
      "genres" : [ "instrumental funk" ],
      "href" : "https://api.spotify.com/v1/artists/0ZPqGxW2iwZz7vGJWzuTUi",
      "id" : "0ZPqGxW2iwZz7vGJWzuTUi",
      "images" : [ {
        "height" : 640,
        "url" : "https://i.scdn.co/image/ab6761610000e5eb8ddedcddd71473175cd6213c",
        "width" : 640
      }, {
        "height" : 320,
        "url" : "https://i.scdn.co/image/ab676161000051748ddedcddd71473175cd6213c",
        "width" : 320
      }, {
        "height" : 160,
        "url" : "https://i.scdn.co/image/ab6761610000f1788ddedcddd71473175cd6213c",
        "width" : 160
      } ],
      "name" : "The Olympians",
      "popularity" : 43,
      "type" : "artist",
      "uri" : "spotify:artist:0ZPqGxW2iwZz7vGJWzuTUi"
    }, {
      "external_urls" : {
        "spotify" : "https://open.spotify.com/artist/0id62QV2SZZfvBn9xpmuCl"
      },
      "followers" : {
        "href" : null,
        "total" : 713133
      },
      "genres" : [ "pop soul", "r&b" ],
      "href" : "https://api.spotify.com/v1/artists/0id62QV2SZZfvBn9xpmuCl",
      "id" : "0id62QV2SZZfvBn9xpmuCl",
      "images" : [ {
        "height" : 640,
        "url" : "https://i.scdn.co/image/ab6761610000e5eb6e32f8634cccacea62a7f5ce",
        "width" : 640
      }, {
        "height" : 320,
        "url" : "https://i.scdn.co/image/ab676161000051746e32f8634cccacea62a7f5ce",
        "width" : 320
      }, {
        "height" : 160,
        "url" : "https://i.scdn.co/image/ab6761610000f1786e32f8634cccacea62a7f5ce",
        "width" : 160
      } ],
      "name" : "Aloe Blacc",
      "popularity" : 63,
      "type" : "artist",
      "uri" : "spotify:artist:0id62QV2SZZfvBn9xpmuCl"
    }, {
      "external_urls" : {
        "spotify" : "https://open.spotify.com/artist/0sjShUAIZ8A5b6YhYHB2A0"
      },
      "followers" : {
        "href" : null,
        "total" : 8783
      },
      "genres" : [ "athens indie", "elephant 6" ],
      "href" : "https://api.spotify.com/v1/artists/0sjShUAIZ8A5b6YhYHB2A0",
      "id" : "0sjShUAIZ8A5b6YhYHB2A0",
      "images" : [ {
        "height" : 640,
        "url" : "https://i.scdn.co/image/ab67616d0000b2731b5721989fa146e66c48c1b9",
        "width" : 640
      }, {
        "height" : 300,
        "url" : "https://i.scdn.co/image/ab67616d00001e021b5721989fa146e66c48c1b9",
        "width" : 300
      }, {
        "height" : 64,
        "url" : "https://i.scdn.co/image/ab67616d000048511b5721989fa146e66c48c1b9",
        "width" : 64
      } ],
      "name" : "Japancakes",
      "popularity" : 23,
      "type" : "artist",
      "uri" : "spotify:artist:0sjShUAIZ8A5b6YhYHB2A0"
    }, {
      "external_urls" : {
        "spotify" : "https://open.spotify.com/artist/0wEC4E2jpVtTSLsH6YJM0P"
      },
      "followers" : {
        "href" : null,
        "total" : 14752
      },
      "genres" : [ ],
      "href" : "https://api.spotify.com/v1/artists/0wEC4E2jpVtTSLsH6YJM0P",
      "id" : "0wEC4E2jpVtTSLsH6YJM0P",
      "images" : [ {
        "height" : 640,
        "url" : "https://i.scdn.co/image/ab6761610000e5ebd865a910a6e3b1a67aabf63f",
        "width" : 640
      }, {
        "height" : 320,
        "url" : "https://i.scdn.co/image/ab67616100005174d865a910a6e3b1a67aabf63f",
        "width" : 320
      }, {
        "height" : 160,
        "url" : "https://i.scdn.co/image/ab6761610000f178d865a910a6e3b1a67aabf63f",
        "width" : 160
      } ],
      "name" : "Trip the Witch",
      "popularity" : 30,
      "type" : "artist",
      "uri" : "spotify:artist:0wEC4E2jpVtTSLsH6YJM0P"
    }, {
      "external_urls" : {
        "spotify" : "https://open.spotify.com/artist/169XIGeOLdzJmKPdXSs1sN"
      },
      "followers" : {
        "href" : null,
        "total" : 388
      },
      "genres" : [ ],
      "href" : "https://api.spotify.com/v1/artists/169XIGeOLdzJmKPdXSs1sN",
      "id" : "169XIGeOLdzJmKPdXSs1sN",
      "images" : [ {
        "height" : 640,
        "url" : "https://i.scdn.co/image/ab67616d0000b273d17b708d6c65f0d21267a9fb",
        "width" : 640
      }, {
        "height" : 300,
        "url" : "https://i.scdn.co/image/ab67616d00001e02d17b708d6c65f0d21267a9fb",
        "width" : 300
      }, {
        "height" : 64,
        "url" : "https://i.scdn.co/image/ab67616d00004851d17b708d6c65f0d21267a9fb",
        "width" : 64
      } ],
      "name" : "Bobby Jealousy",
      "popularity" : 0,
      "type" : "artist",
      "uri" : "spotify:artist:169XIGeOLdzJmKPdXSs1sN"
    }, {
      "external_urls" : {
        "spotify" : "https://open.spotify.com/artist/16GcWuvvybAoaHr0NqT8Eh"
      },
      "followers" : {
        "href" : null,
        "total" : 1601874
      },
      "genres" : [ "alabama indie", "modern blues rock", "rock" ],
      "href" : "https://api.spotify.com/v1/artists/16GcWuvvybAoaHr0NqT8Eh",
      "id" : "16GcWuvvybAoaHr0NqT8Eh",
      "images" : [ {
        "height" : 640,
        "url" : "https://i.scdn.co/image/ab6761610000e5eb854713444dd710e1fb4a1b69",
        "width" : 640
      }, {
        "height" : 320,
        "url" : "https://i.scdn.co/image/ab67616100005174854713444dd710e1fb4a1b69",
        "width" : 320
      }, {
        "height" : 160,
        "url" : "https://i.scdn.co/image/ab6761610000f178854713444dd710e1fb4a1b69",
        "width" : 160
      } ],
      "name" : "Alabama Shakes",
      "popularity" : 58,
      "type" : "artist",
      "uri" : "spotify:artist:16GcWuvvybAoaHr0NqT8Eh"
    }, {
      "external_urls" : {
        "spotify" : "https://open.spotify.com/artist/16oZKvXb6WkQlVAjwo2Wbg"
      },
      "followers" : {
        "href" : null,
        "total" : 5201240
      },
      "genres" : [ "folk-pop", "modern rock", "stomp and holler" ],
      "href" : "https://api.spotify.com/v1/artists/16oZKvXb6WkQlVAjwo2Wbg",
      "id" : "16oZKvXb6WkQlVAjwo2Wbg",
      "images" : [ {
        "height" : 640,
        "url" : "https://i.scdn.co/image/ab6761610000e5ebc79f78fd72a3e5faf699a8be",
        "width" : 640
      }, {
        "height" : 320,
        "url" : "https://i.scdn.co/image/ab67616100005174c79f78fd72a3e5faf699a8be",
        "width" : 320
      }, {
        "height" : 160,
        "url" : "https://i.scdn.co/image/ab6761610000f178c79f78fd72a3e5faf699a8be",
        "width" : 160
      } ],
      "name" : "The Lumineers",
      "popularity" : 74,
      "type" : "artist",
      "uri" : "spotify:artist:16oZKvXb6WkQlVAjwo2Wbg"
    }, {
      "external_urls" : {
        "spotify" : "https://open.spotify.com/artist/1APkBw2b1qn7SyOyChuAdl"
      },
      "followers" : {
        "href" : null,
        "total" : 248
      },
      "genres" : [ ],
      "href" : "https://api.spotify.com/v1/artists/1APkBw2b1qn7SyOyChuAdl",
      "id" : "1APkBw2b1qn7SyOyChuAdl",
      "images" : [ {
        "height" : 640,
        "url" : "https://i.scdn.co/image/ab6761610000e5eb158db799c32c853fe5338843",
        "width" : 640
      }, {
        "height" : 320,
        "url" : "https://i.scdn.co/image/ab67616100005174158db799c32c853fe5338843",
        "width" : 320
      }, {
        "height" : 160,
        "url" : "https://i.scdn.co/image/ab6761610000f178158db799c32c853fe5338843",
        "width" : 160
      } ],
      "name" : "Sunnnner",
      "popularity" : 0,
      "type" : "artist",
      "uri" : "spotify:artist:1APkBw2b1qn7SyOyChuAdl"
    }, {
      "external_urls" : {
        "spotify" : "https://open.spotify.com/artist/1HvH97rzvCH6lfnLlgyfke"
      },
      "followers" : {
        "href" : null,
        "total" : 96939
      },
      "genres" : [ "australian hip hop" ],
      "href" : "https://api.spotify.com/v1/artists/1HvH97rzvCH6lfnLlgyfke",
      "id" : "1HvH97rzvCH6lfnLlgyfke",
      "images" : [ {
        "height" : 640,
        "url" : "https://i.scdn.co/image/ab6761610000e5ebfafca95bcd315f55a576e00e",
        "width" : 640
      }, {
        "height" : 320,
        "url" : "https://i.scdn.co/image/ab67616100005174fafca95bcd315f55a576e00e",
        "width" : 320
      }, {
        "height" : 160,
        "url" : "https://i.scdn.co/image/ab6761610000f178fafca95bcd315f55a576e00e",
        "width" : 160
      } ],
      "name" : "Genesis Owusu",
      "popularity" : 47,
      "type" : "artist",
      "uri" : "spotify:artist:1HvH97rzvCH6lfnLlgyfke"
    }, {
      "external_urls" : {
        "spotify" : "https://open.spotify.com/artist/1OmdWpAh1pucAuZPzJaxIJ"
      },
      "followers" : {
        "href" : null,
        "total" : 196561
      },
      "genres" : [ "alternative country", "chamber pop", "roots rock", "tucson indie" ],
      "href" : "https://api.spotify.com/v1/artists/1OmdWpAh1pucAuZPzJaxIJ",
      "id" : "1OmdWpAh1pucAuZPzJaxIJ",
      "images" : [ {
        "height" : 640,
        "url" : "https://i.scdn.co/image/ab6761610000e5ebba3713c77f20b1a8a85a399d",
        "width" : 640
      }, {
        "height" : 320,
        "url" : "https://i.scdn.co/image/ab67616100005174ba3713c77f20b1a8a85a399d",
        "width" : 320
      }, {
        "height" : 160,
        "url" : "https://i.scdn.co/image/ab6761610000f178ba3713c77f20b1a8a85a399d",
        "width" : 160
      } ],
      "name" : "Calexico",
      "popularity" : 46,
      "type" : "artist",
      "uri" : "spotify:artist:1OmdWpAh1pucAuZPzJaxIJ"
    }, {
      "external_urls" : {
        "spotify" : "https://open.spotify.com/artist/1uQWmt1OhuHGRKmZ2ZcL6p"
      },
      "followers" : {
        "href" : null,
        "total" : 621011
      },
      "genres" : [ "american post-rock", "cinematic post-rock", "instrumental post-rock", "melancholia", "post-rock" ],
      "href" : "https://api.spotify.com/v1/artists/1uQWmt1OhuHGRKmZ2ZcL6p",
      "id" : "1uQWmt1OhuHGRKmZ2ZcL6p",
      "images" : [ {
        "height" : 640,
        "url" : "https://i.scdn.co/image/ab6761610000e5ebd7b6e86a1d003f907c6f4b7d",
        "width" : 640
      }, {
        "height" : 320,
        "url" : "https://i.scdn.co/image/ab67616100005174d7b6e86a1d003f907c6f4b7d",
        "width" : 320
      }, {
        "height" : 160,
        "url" : "https://i.scdn.co/image/ab6761610000f178d7b6e86a1d003f907c6f4b7d",
        "width" : 160
      } ],
      "name" : "Explosions In The Sky",
      "popularity" : 49,
      "type" : "artist",
      "uri" : "spotify:artist:1uQWmt1OhuHGRKmZ2ZcL6p"
    }, {
      "external_urls" : {
        "spotify" : "https://open.spotify.com/artist/1uRxRKC7d9zwYGSRflTKDR"
      },
      "followers" : {
        "href" : null,
        "total" : 333300
      },
      "genres" : [ "indie soul", "pop soul" ],
      "href" : "https://api.spotify.com/v1/artists/1uRxRKC7d9zwYGSRflTKDR",
      "id" : "1uRxRKC7d9zwYGSRflTKDR",
      "images" : [ {
        "height" : 640,
        "url" : "https://i.scdn.co/image/ab6761610000e5eb38dfd1af91aeccad71e6412f",
        "width" : 640
      }, {
        "height" : 320,
        "url" : "https://i.scdn.co/image/ab6761610000517438dfd1af91aeccad71e6412f",
        "width" : 320
      }, {
        "height" : 160,
        "url" : "https://i.scdn.co/image/ab6761610000f17838dfd1af91aeccad71e6412f",
        "width" : 160
      } ],
      "name" : "SAULT",
      "popularity" : 58,
      "type" : "artist",
      "uri" : "spotify:artist:1uRxRKC7d9zwYGSRflTKDR"
    }, {
      "external_urls" : {
        "spotify" : "https://open.spotify.com/artist/1xS9wRaWvtlxsmERNuNJF2"
      },
      "followers" : {
        "href" : null,
        "total" : 15175
      },
      "genres" : [ "brighton indie", "candy pop" ],
      "href" : "https://api.spotify.com/v1/artists/1xS9wRaWvtlxsmERNuNJF2",
      "id" : "1xS9wRaWvtlxsmERNuNJF2",
      "images" : [ {
        "height" : 750,
        "url" : "https://i.scdn.co/image/05d980b8d76d2830026328b79d4624a8f2b54987",
        "width" : 600
      }, {
        "height" : 250,
        "url" : "https://i.scdn.co/image/003251c51b15d901c67db55d36a3f4289425a9f2",
        "width" : 200
      }, {
        "height" : 80,
        "url" : "https://i.scdn.co/image/7ad899de86f64f9a96a0d6a4a26a4ced633e9917",
        "width" : 64
      } ],
      "name" : "The Pipettes",
      "popularity" : 20,
      "type" : "artist",
      "uri" : "spotify:artist:1xS9wRaWvtlxsmERNuNJF2"
    }, {
      "external_urls" : {
        "spotify" : "https://open.spotify.com/artist/27CC3tpq7WQR25M03jKTZm"
      },
      "followers" : {
        "href" : null,
        "total" : 23730
      },
      "genres" : [ ],
      "href" : "https://api.spotify.com/v1/artists/27CC3tpq7WQR25M03jKTZm",
      "id" : "27CC3tpq7WQR25M03jKTZm",
      "images" : [ {
        "height" : 640,
        "url" : "https://i.scdn.co/image/ab6761610000e5ebc19686fea8066c7596525b46",
        "width" : 640
      }, {
        "height" : 320,
        "url" : "https://i.scdn.co/image/ab67616100005174c19686fea8066c7596525b46",
        "width" : 320
      }, {
        "height" : 160,
        "url" : "https://i.scdn.co/image/ab6761610000f178c19686fea8066c7596525b46",
        "width" : 160
      } ],
      "name" : "Kiltro",
      "popularity" : 42,
      "type" : "artist",
      "uri" : "spotify:artist:27CC3tpq7WQR25M03jKTZm"
    }, {
      "external_urls" : {
        "spotify" : "https://open.spotify.com/artist/27M9shmwhIjRo7WntpT9Rp"
      },
      "followers" : {
        "href" : null,
        "total" : 356336
      },
      "genres" : [ "acoustic rock", "folk punk" ],
      "href" : "https://api.spotify.com/v1/artists/27M9shmwhIjRo7WntpT9Rp",
      "id" : "27M9shmwhIjRo7WntpT9Rp",
      "images" : [ {
        "height" : 640,
        "url" : "https://i.scdn.co/image/ab6761610000e5ebff9005f7d58698e0e6020238",
        "width" : 640
      }, {
        "height" : 320,
        "url" : "https://i.scdn.co/image/ab67616100005174ff9005f7d58698e0e6020238",
        "width" : 320
      }, {
        "height" : 160,
        "url" : "https://i.scdn.co/image/ab6761610000f178ff9005f7d58698e0e6020238",
        "width" : 160
      } ],
      "name" : "Frank Turner",
      "popularity" : 51,
      "type" : "artist",
      "uri" : "spotify:artist:27M9shmwhIjRo7WntpT9Rp"
    }, {
      "external_urls" : {
        "spotify" : "https://open.spotify.com/artist/2CvCyf1gEVhI0mX6aFXmVI"
      },
      "followers" : {
        "href" : null,
        "total" : 2160153
      },
      "genres" : [ "classic rock", "folk", "folk rock", "mellow gold", "permanent wave", "rock", "singer-songwriter", "soft rock" ],
      "href" : "https://api.spotify.com/v1/artists/2CvCyf1gEVhI0mX6aFXmVI",
      "id" : "2CvCyf1gEVhI0mX6aFXmVI",
      "images" : [ {
        "height" : 640,
        "url" : "https://i.scdn.co/image/ab6761610000e5ebddc148cfa465c2065846c636",
        "width" : 640
      }, {
        "height" : 320,
        "url" : "https://i.scdn.co/image/ab67616100005174ddc148cfa465c2065846c636",
        "width" : 320
      }, {
        "height" : 160,
        "url" : "https://i.scdn.co/image/ab6761610000f178ddc148cfa465c2065846c636",
        "width" : 160
      } ],
      "name" : "Paul Simon",
      "popularity" : 67,
      "type" : "artist",
      "uri" : "spotify:artist:2CvCyf1gEVhI0mX6aFXmVI"
    } ],
    "next" : "https://api.spotify.com/v1/me/following?type=artist&limit=20&after=2CvCyf1gEVhI0mX6aFXmVI",
    "total" : 62,
    "cursors" : {
      "after" : "2CvCyf1gEVhI0mX6aFXmVI"
    },
    "limit" : 20,
    "href" : "https://api.spotify.com/v1/me/following?type=artist&limit=20"
  }
}
